^C:\USERS\МИХАИЛ\DOCUMENTS\VISUAL STUDIO 2015\PROJECTS\LAB3_FINAL\TEST\STDAFX.CPP
/c /I"C:\USERS\МИХАИЛ\DOCUMENTS\VISUAL STUDIO 2015\PROJECTS\GTEST-1.7.0\INCLUDE" /Zi /nologo /W3 /WX- /sdl /O2 /Oi /Oy- /GL /D WIN32 /D NDEBUG /D _CONSOLE /D _UNICODE /D UNICODE /Gm- /EHsc /MT /GS /Gy /fp:precise /Zc:wchar_t /Zc:forScope /Zc:inline /Yc"stdafx.h" /Fp"RELEASE\TEST.PCH" /Fo"RELEASE\\" /Fd"RELEASE\VC140.PDB" /Gd /TP /analyze- C:\USERS\МИХАИЛ\DOCUMENTS\VISUAL STUDIO 2015\PROJECTS\LAB3_FINAL\TEST\STDAFX.CPP
^C:\USERS\МИХАИЛ\DOCUMENTS\VISUAL STUDIO 2015\PROJECTS\LAB3_FINAL\TEST\SPECIAL_TEST.CPP
/c /I"C:\USERS\МИХАИЛ\DOCUMENTS\VISUAL STUDIO 2015\PROJECTS\GTEST-1.7.0\INCLUDE" /Zi /nologo /W3 /WX- /sdl /O2 /Oi /Oy- /GL /D WIN32 /D NDEBUG /D _CONSOLE /D _UNICODE /D UNICODE /Gm- /EHsc /MT /GS /Gy /fp:precise /Zc:wchar_t /Zc:forScope /Zc:inline /Yu"stdafx.h" /Fp"RELEASE\TEST.PCH" /Fo"RELEASE\\" /Fd"RELEASE\VC140.PDB" /Gd /TP /analyze- C:\USERS\МИХАИЛ\DOCUMENTS\VISUAL STUDIO 2015\PROJECTS\LAB3_FINAL\TEST\SPECIAL_TEST.CPP
^C:\USERS\МИХАИЛ\DOCUMENTS\VISUAL STUDIO 2015\PROJECTS\LAB3_FINAL\TEST\TEST.CPP
/c /I"C:\USERS\МИХАИЛ\DOCUMENTS\VISUAL STUDIO 2015\PROJECTS\GTEST-1.7.0\INCLUDE" /Zi /nologo /W3 /WX- /sdl /O2 /Oi /Oy- /GL /D WIN32 /D NDEBUG /D _CONSOLE /D _UNICODE /D UNICODE /Gm- /EHsc /MT /GS /Gy /fp:precise /Zc:wchar_t /Zc:forScope /Zc:inline /Yu"stdafx.h" /Fp"RELEASE\TEST.PCH" /Fo"RELEASE\\" /Fd"RELEASE\VC140.PDB" /Gd /TP /analyze- C:\USERS\МИХАИЛ\DOCUMENTS\VISUAL STUDIO 2015\PROJECTS\LAB3_FINAL\TEST\TEST.CPP
